\relax 
\providecommand\babel@aux[2]{}
\@nameuse{bbl@beforestart}
\providecommand\hyper@newdestlabel[2]{}
\providecommand\HyperFirstAtBeginDocument{\AtBeginDocument}
\HyperFirstAtBeginDocument{\ifx\hyper@anchor\@undefined
\global\let\oldnewlabel\newlabel
\gdef\newlabel#1#2{\newlabelxx{#1}#2}
\gdef\newlabelxx#1#2#3#4#5#6{\oldnewlabel{#1}{{#2}{#3}}}
\AtEndDocument{\ifx\hyper@anchor\@undefined
\let\newlabel\oldnewlabel
\fi}
\fi}
\global\let\hyper@last\relax 
\gdef\HyperFirstAtBeginDocument#1{#1}
\providecommand\HyField@AuxAddToFields[1]{}
\providecommand\HyField@AuxAddToCoFields[2]{}
\babel@aux{nil}{}
\@writefile{toc}{\contentsline {section}{P:1, O.I.1. }{2}{section*.1}\protected@file@percent }
\@writefile{toc}{\contentsline {section}{P:2, O.I.2.}{5}{equation.0.1}\protected@file@percent }
\newlabel{eq:2:1}{{2}{5}{}{equation.0.2}{}}
\newlabel{eq:2:1}{{3}{7}{}{equation.0.3}{}}
\@writefile{toc}{\contentsline {section}{P:3, O.II.1.}{8}{equation.0.3}\protected@file@percent }
\@writefile{toc}{\contentsline {section}{P:4, O.II.2.}{10}{equation.0.3}\protected@file@percent }
\newlabel{item1}{{a}{11}{}{Item.1}{}}
\newlabel{item2}{{b}{11}{}{Item.2}{}}
\newlabel{item3}{{c}{11}{}{Item.3}{}}
\newlabel{sss}{{4}{11}{}{equation.0.4}{}}
\newlabel{pollo}{{5}{11}{}{equation.0.4}{}}
\newlabel{tocindent-1}{0pt}
\newlabel{tocindent0}{0pt}
\newlabel{tocindent1}{0pt}
\newlabel{tocindent2}{0pt}
\newlabel{tocindent3}{0pt}
\gdef \@abspage@last{14}
