\babel@toc {nil}{}\relax 
\contentsline {section}{P:1, O.I.1. }{2}{section*.1}%
\contentsline {section}{P:2, O.I.2.}{5}{equation.0.1}%
\contentsline {section}{P:3, O.II.1.}{8}{equation.0.3}%
\contentsline {section}{P:4, O.II.2.}{10}{equation.0.3}%
